"id","name","message","fileLink","vidLink","created","modified"
1,"sadasdsadasd","msg3","2016-12-06/img_20161206170840.png","files/videos/2016-12-06/vid_20161206170841.mp4","2016-12-06 17:08:46","2016-12-06 17:08:46"
2,"sadasdsadasd","msg3","2016-12-06/img_20161206171217.png","files/videos/2016-12-06/vid_20161206171218.mp4","2016-12-06 17:12:25","2016-12-06 17:12:25"
3,"FARIZ & FAMILY LALALALALALALLALALAL","msg2","2016-12-06/img_20161206171631.png","files/videos/2016-12-06/vid_20161206171633.mp4","2016-12-06 17:16:39","2016-12-06 17:16:39"
4,"sdasdsadsadasdasdsadsadsadsad","msg2","2016-12-06/img_20161206172605.png","files/videos/2016-12-06/vid_20161206172606.mp4","2016-12-06 17:26:13","2016-12-06 17:26:13"
5,"sdasdsadsadasdasdsadsadsadsad","msg2","2016-12-06/img_20161206173339.png","files/videos/2016-12-06/vid_20161206173342.mp4","2016-12-06 17:33:48","2016-12-06 17:33:48"
6,"sbsdbdjdkdkdmsmsmsmsms","msg1","2016-12-06/img_20161206175751.png","files/videos/2016-12-06/vid_20161206175753.mp4","2016-12-06 17:57:58","2016-12-06 17:57:58"
7,"FARIZ family & friends hahahahaaha","msg1","2016-12-07/img_20161207015619.png","files/videos/2016-12-07/vid_20161207015621.mp4","2016-12-07 01:56:25","2016-12-07 01:56:25"
8,"fariz family","msg1","2016-12-07/img_20161207015725.png","files/videos/2016-12-07/vid_20161207015727.mp4","2016-12-07 01:57:31","2016-12-07 01:57:31"
9,"Chan","msg2","2016-12-07/img_20161207025700.png","files/videos/2016-12-07/vid_20161207025702.mp4","2016-12-07 02:57:07","2016-12-07 02:57:07"
10,"FARIZ & FAMILY LALALALALALALLALALAL","msg2","2016-12-07/img_20161207025843.png","files/videos/2016-12-07/vid_20161207025845.mp4","2016-12-07 02:58:52","2016-12-07 02:58:52"
11,"FARIZ & FAMILY LALALALALALALLALALAL","msg2","2016-12-07/img_20161207030005.png","files/videos/2016-12-07/vid_20161207030007.mp4","2016-12-07 03:00:13","2016-12-07 03:00:13"
12,"FARIZ & FAMILY LALALALALALALLALALAL","msg2","2016-12-07/img_20161207030142.png","files/videos/2016-12-07/vid_20161207030145.mp4","2016-12-07 03:01:51","2016-12-07 03:01:51"
13,"","msg3","2016-12-07/img_20161207030242.png","files/videos/2016-12-07/vid_20161207030244.mp4","2016-12-07 03:02:51","2016-12-07 03:02:51"
14,"FARIZ & FAMILY LALALALALALALLALALAL","msg2","2016-12-07/img_20161207030430.png","files/videos/2016-12-07/vid_20161207030431.mp4","2016-12-07 03:04:38","2016-12-07 03:04:38"
15,"FARIZ & FAMILY LALALALALALALLALALAL","msg2","2016-12-07/img_20161207030457.png","files/videos/2016-12-07/vid_20161207030459.mp4","2016-12-07 03:05:05","2016-12-07 03:05:05"
16,"Dghh","msg1","2016-12-07/img_20161207031016.png","files/videos/2016-12-07/vid_20161207031018.mp4","2016-12-07 03:10:23","2016-12-07 03:10:23"
17,"FARIZ IZWAN & FAMILY hahahahahahaha","msg2","2016-12-07/img_20161207033257.png",NULL,"2016-12-07 03:32:59","2016-12-07 03:32:59"
18,"FARIZ IZWAN & family","msg2","2016-12-07/img_20161207033355.png","files/videos/2016-12-07/vid_20161207033357.mp4","2016-12-07 03:34:03","2016-12-07 03:34:03"
19,"fariz izwan kamaruzzaman","msg2","2016-12-07/img_20161207033456.png","files/videos/2016-12-07/vid_20161207033458.mp4","2016-12-07 03:35:05","2016-12-07 03:35:05"
20,"fariz & family","msg1","2016-12-07/img_20161207034121.png","files/videos/2016-12-07/vid_20161207034122.mp4","2016-12-07 03:41:28","2016-12-07 03:41:28"
21,"fariz & family","msg1","2016-12-07/img_20161207034150.png","files/videos/2016-12-07/vid_20161207034151.mp4","2016-12-07 03:41:58","2016-12-07 03:41:58"
22,"FARIZ & family","msg1","2016-12-07/img_20161207034501.png","files/videos/2016-12-07/vid_20161207034503.mp4","2016-12-07 03:45:10","2016-12-07 03:45:10"
23,"Fariz izwan kamaruzzmaan","msg1","2016-12-07/img_20161207035945.png","files/videos/2016-12-07/vid_20161207035947.mp4","2016-12-07 03:59:53","2016-12-07 03:59:53"
24,"carozjxnnsnnnsnnnnj","msg1","2016-12-07/img_20161207040919.png",NULL,"2016-12-07 04:09:21","2016-12-07 04:09:21"
25,"asdasdasdasdasdasdsadasd","msg1","2016-12-07/img_20161207040950.png",NULL,"2016-12-07 04:09:51","2016-12-07 04:09:51"
26,"fariz & family","msg1","2016-12-07/img_20161207041027.png","files/videos/2016-12-07/vid_20161207041029.mp4","2016-12-07 04:10:35","2016-12-07 04:10:35"
27,"fariz family","msg1","2016-12-07/img_20161207043504.png","files/videos/2016-12-07/vid_20161207043505.mp4","2016-12-07 04:35:11","2016-12-07 04:35:11"
28,"fariz family","msg1","2016-12-07/img_20161207043558.png","files/videos/2016-12-07/vid_20161207043600.mp4","2016-12-07 04:36:05","2016-12-07 04:36:05"
29,"fariz izwan kamaruzzaman","msg2","2016-12-07/img_20161207044838.png","files/videos/2016-12-07/vid_20161207044840.mp4","2016-12-07 04:48:47","2016-12-07 04:48:47"
30,"asdasdasdasdasdasdsadasdsa","msg1","2016-12-07/img_20161207044953.png","files/videos/2016-12-07/vid_20161207044954.mp4","2016-12-07 04:50:00","2016-12-07 04:50:00"
31,"fariz & family","msg2","2016-12-07/img_20161207045117.png","files/videos/2016-12-07/vid_20161207045119.mp4","2016-12-07 04:51:25","2016-12-07 04:51:25"
32,"fariz & family","msg2","2016-12-07/img_20161207045557.png","files/videos/2016-12-07/vid_20161207045559.mp4","2016-12-07 04:56:05","2016-12-07 04:56:05"
33,"FARIZ asdasdasdasdasdasd","msg1","2016-12-07/img_20161207045658.png","files/videos/2016-12-07/vid_20161207045700.mp4","2016-12-07 04:57:06","2016-12-07 04:57:06"
34,"adasdasdasd","msg2","2016-12-07/img_20161207045925.png","files/videos/2016-12-07/vid_20161207045927.mp4","2016-12-07 04:59:32","2016-12-07 04:59:32"
35,"asdasdasdasdasdasdasd","msg2","2016-12-07/img_20161207050249.png","files/videos/2016-12-07/vid_20161207050251.mp4","2016-12-07 05:02:57","2016-12-07 05:02:57"
36,"asdasdsadsad","msg2","2016-12-07/img_20161207050558.png","files/videos/2016-12-07/vid_20161207050559.mp4","2016-12-07 05:06:05","2016-12-07 05:06:05"
37,"asdasdsadsad","msg2","2016-12-07/img_20161207050635.png","files/videos/2016-12-07/vid_20161207050636.mp4","2016-12-07 05:06:42","2016-12-07 05:06:42"
38,"asdasdasd","msg2","2016-12-07/img_20161207050819.png","files/videos/2016-12-07/vid_20161207050821.mp4","2016-12-07 05:08:28","2016-12-07 05:08:28"
39,"asdasdasd","msg2","2016-12-07/img_20161207050917.png","files/videos/2016-12-07/vid_20161207050919.mp4","2016-12-07 05:09:25","2016-12-07 05:09:25"
40,"asdasdasdsadasdsad","msg2","2016-12-07/img_20161207051257.png","files/videos/2016-12-07/vid_20161207051259.mp4","2016-12-07 05:13:06","2016-12-07 05:13:06"
41,"fariz & family","msg1","2016-12-07/img_20161207051557.png","files/videos/2016-12-07/vid_20161207051559.mp4","2016-12-07 05:16:05","2016-12-07 05:16:05"
42,"fariz & family","msg2","2016-12-07/img_20161207051728.png","files/videos/2016-12-07/vid_20161207051729.mp4","2016-12-07 05:17:35","2016-12-07 05:17:35"
43,"asdsadsad","msg3","2016-12-07/img_20161207052057.png","files/videos/2016-12-07/vid_20161207052059.mp4","2016-12-07 05:21:05","2016-12-07 05:21:05"
44,"fariz & family","msg1","2016-12-07/img_20161207055033.png","files/videos/2016-12-07/vid_20161207055035.mp4","2016-12-07 05:50:41","2016-12-07 05:50:41"
45,"fariz & family","msg1","2016-12-07/img_20161207055131.png","files/videos/2016-12-07/vid_20161207055133.mp4","2016-12-07 05:51:39","2016-12-07 05:51:39"
46,"fariz & family","msg1","2016-12-07/img_20161207055207.png","files/videos/2016-12-07/vid_20161207055209.mp4","2016-12-07 05:52:15","2016-12-07 05:52:15"
47,"fariz & family asdasdasdasdasdsad","msg1","2016-12-07/img_20161207055539.png","files/videos/2016-12-07/vid_20161207055540.mp4","2016-12-07 05:55:46","2016-12-07 05:55:46"
48,"asdasdasd","msg1","2016-12-07/img_20161207060604.png","files/videos/2016-12-07/vid_20161207060606.mp4","2016-12-07 06:06:12","2016-12-07 06:06:12"
49,"FARrasdasdasd asdasdasdasd","msg1","2016-12-07/img_20161207061327.png","files/videos/2016-12-07/vid_20161207061328.mp4","2016-12-07 06:13:34","2016-12-07 06:13:34"
50,"FARrasdasdasd asdasdasdasd","msg1","2016-12-07/img_20161207061358.png","files/videos/2016-12-07/vid_20161207061359.mp4","2016-12-07 06:14:06","2016-12-07 06:14:06"
51,"FARrasdasdasd asdasdasdasd","msg1","2016-12-07/img_20161207061502.png","files/videos/2016-12-07/vid_20161207061503.mp4","2016-12-07 06:15:09","2016-12-07 06:15:09"
52,"FARrasdasdasd asdasdasdasd","msg1","2016-12-07/img_20161207061831.png","files/videos/2016-12-07/vid_20161207061833.mp4","2016-12-07 06:18:39","2016-12-07 06:18:39"
53,"FARrasdasdasd asdasdasdasd","msg1","2016-12-07/img_20161207061913.png","files/videos/2016-12-07/vid_20161207061915.mp4","2016-12-07 06:19:21","2016-12-07 06:19:21"
54,"FARrasdasdasd asdasdasdasd","msg1","2016-12-07/img_20161207062025.png","files/videos/2016-12-07/vid_20161207062026.mp4","2016-12-07 06:20:32","2016-12-07 06:20:32"
55,"asdasdasd","msg2","2016-12-07/img_20161207062211.png","files/videos/2016-12-07/vid_20161207062212.mp4","2016-12-07 06:22:18","2016-12-07 06:22:18"
56,"fariz & family sadasdsadasdd","msg1","2016-12-07/img_20161207062705.png","files/videos/2016-12-07/vid_20161207062706.mp4","2016-12-07 06:27:13","2016-12-07 06:27:13"
57,"sadasdasdasdsadasdasdasdasd","msg2","2016-12-07/img_20161207062841.png","files/videos/2016-12-07/vid_20161207062843.mp4","2016-12-07 06:28:49","2016-12-07 06:28:49"
58,"sadasdasdasdsadasdasdasdasd","msg2","2016-12-07/img_20161207063250.png","files/videos/2016-12-07/vid_20161207063251.mp4","2016-12-07 06:32:58","2016-12-07 06:32:58"
59,"fsdfsdfdsfdsfdsfdsf","msg2","2016-12-07/img_20161207063406.png","files/videos/2016-12-07/vid_20161207063408.mp4","2016-12-07 06:34:14","2016-12-07 06:34:14"
60,"fsdfsdfdsfdsfdsfdsf","msg2","2016-12-07/img_20161207063639.png","files/videos/2016-12-07/vid_20161207063641.mp4","2016-12-07 06:36:47","2016-12-07 06:36:47"
61,"fsdfsdfdsfdsfdsfdsf","msg2","2016-12-07/img_20161207063824.png","files/videos/2016-12-07/vid_20161207063825.mp4","2016-12-07 06:38:32","2016-12-07 06:38:32"
62,"dasdsadasdasdasdasd","msg2","2016-12-07/img_20161207063925.png","files/videos/2016-12-07/vid_20161207063927.mp4","2016-12-07 06:39:33","2016-12-07 06:39:33"
63,"asdasdasdasd","msg2","2016-12-07/img_20161207064244.png","files/videos/2016-12-07/vid_20161207064246.mp4","2016-12-07 06:42:52","2016-12-07 06:42:52"
64,"asdasdasdsad","msg2","2016-12-07/img_20161207065238.png","files/videos/2016-12-07/vid_20161207065239.mp4","2016-12-07 06:52:46","2016-12-07 06:52:46"
65,"asdasd","msg1","2016-12-07/img_20161207065728.png","files/videos/2016-12-07/vid_20161207065730.mp4","2016-12-07 06:57:36","2016-12-07 06:57:36"
66,"asdasd","msg1","2016-12-07/img_20161207070107.png","files/videos/2016-12-07/vid_20161207070109.mp4","2016-12-07 07:01:15","2016-12-07 07:01:15"
67,"asdasd","msg1","2016-12-07/img_20161207070327.png","files/videos/2016-12-07/vid_20161207070329.mp4","2016-12-07 07:03:35","2016-12-07 07:03:35"
68,"asdasdsad","msg1","2016-12-07/img_20161207070535.png","files/videos/2016-12-07/vid_20161207070537.mp4","2016-12-07 07:05:44","2016-12-07 07:05:44"
69,"rerer","msg1","2016-12-07/img_20161207070622.png","files/videos/2016-12-07/vid_20161207070625.mp4","2016-12-07 07:06:32","2016-12-07 07:06:32"
70,"asdasdsad","msg1","2016-12-07/img_20161207070707.png","files/videos/2016-12-07/vid_20161207070709.mp4","2016-12-07 07:07:17","2016-12-07 07:07:17"
71,"asdasdsad","msg1","2016-12-07/img_20161207071634.png","files/videos/2016-12-07/vid_20161207071636.mp4","2016-12-07 07:16:42","2016-12-07 07:16:42"
72,"sdsdasdsad","msg2","2016-12-07/img_20161207072446.png","files/videos/2016-12-07/vid_20161207072447.mp4","2016-12-07 07:24:54","2016-12-07 07:24:54"
73,"asdasd","msg1","2016-12-07/img_20161207072943.png","files/videos/2016-12-07/vid_20161207072944.mp4","2016-12-07 07:29:50","2016-12-07 07:29:50"
74,"sadsadas","msg1","2016-12-07/img_20161207073126.png","files/videos/2016-12-07/vid_20161207073128.mp4","2016-12-07 07:31:33","2016-12-07 07:31:33"
75,"sadsadas","msg1","2016-12-07/img_20161207073218.png","files/videos/2016-12-07/vid_20161207073220.mp4","2016-12-07 07:32:27","2016-12-07 07:32:27"
76,"sadsadas","msg1","2016-12-07/img_20161207073728.png","files/videos/2016-12-07/vid_20161207073729.mp4","2016-12-07 07:37:35","2016-12-07 07:37:35"
77,"sdadasdsd","msg2","2016-12-07/img_20161207074159.png","files/videos/2016-12-07/vid_20161207074201.mp4","2016-12-07 07:42:08","2016-12-07 07:42:08"
78,"fariz & family","msg2","2016-12-07/img_20161207075951.png","files/videos/2016-12-07/vid_20161207075952.mp4","2016-12-07 08:00:00","2016-12-07 08:00:00"
79,"asdasdasdasdsd","msg2","2016-12-07/img_20161207082233.png","files/videos/2016-12-07/vid_20161207082234.mp4","2016-12-07 08:22:40","2016-12-07 08:22:40"
80,"asdasdasdsad","msg2","2016-12-07/img_20161207082352.png","files/videos/2016-12-07/vid_20161207082354.mp4","2016-12-07 08:24:00","2016-12-07 08:24:00"
81,"fafafsfadasdasdasdasdsd","msg1","2016-12-07/img_20161207082758.png","files/videos/2016-12-07/vid_20161207082759.mp4","2016-12-07 08:28:06","2016-12-07 08:28:06"
82,"dsdasd","msg1","2016-12-07/img_20161207083039.png","files/videos/2016-12-07/vid_20161207083040.mp4","2016-12-07 08:30:46","2016-12-07 08:30:46"
83,"","msg1","2016-12-07/img_20161207083435.png","files/videos/2016-12-07/vid_20161207083436.mp4","2016-12-07 08:34:43","2016-12-07 08:34:43"
84,"asdasdsad","msg2","2016-12-07/img_20161207083856.png","files/videos/2016-12-07/vid_20161207083858.mp4","2016-12-07 08:39:04","2016-12-07 08:39:04"
85,"sadasdasdasd","msg2","2016-12-07/img_20161207084029.png","files/videos/2016-12-07/vid_20161207084031.mp4","2016-12-07 08:40:36","2016-12-07 08:40:36"
86,"fariz & family","msg2","2016-12-07/img_20161207084730.png","files/videos/2016-12-07/vid_20161207084732.mp4","2016-12-07 08:47:38","2016-12-07 08:47:38"
87,"asdasdasd","msg1","2016-12-07/img_20161207084937.png","files/videos/2016-12-07/vid_20161207084938.mp4","2016-12-07 08:49:45","2016-12-07 08:49:45"
88,"nenebenennbb","msg1","2016-12-07/img_20161207085145.png","files/videos/2016-12-07/vid_20161207085146.mp4","2016-12-07 08:51:52","2016-12-07 08:51:52"
89,"asdasdsa","msg1","2016-12-07/img_20161207085255.png","files/videos/2016-12-07/vid_20161207085257.mp4","2016-12-07 08:53:03","2016-12-07 08:53:03"
90,"babanansnsnsn","msg1","2016-12-07/img_20161207085405.png","files/videos/2016-12-07/vid_20161207085406.mp4","2016-12-07 08:54:12","2016-12-07 08:54:12"
91,"fafasdasdsadasdsadsdasad","msg1","2016-12-07/img_20161207090009.png","files/videos/2016-12-07/vid_20161207090010.mp4","2016-12-07 09:00:16","2016-12-07 09:00:16"
92,"fariz & family","msg2","2016-12-07/img_20161207090148.png","files/videos/2016-12-07/vid_20161207090149.mp4","2016-12-07 09:01:56","2016-12-07 09:01:56"
93,"fariz & family","msg1","2016-12-07/img_20161207091639.png","files/videos/2016-12-07/vid_20161207091641.mp4","2016-12-07 09:16:47","2016-12-07 09:16:47"
94,"fariz & family","msg1","2016-12-07/img_20161207092159.png","files/videos/2016-12-07/vid_20161207092200.mp4","2016-12-07 09:22:06","2016-12-07 09:22:06"
95,"fasdasdasdasdasdsad","msg2","2016-12-07/img_20161207092408.png","files/videos/2016-12-07/vid_20161207092410.mp4","2016-12-07 09:24:16","2016-12-07 09:24:16"
96,"asdsadasdsad","msg1","2016-12-07/img_20161207092700.png","files/videos/2016-12-07/vid_20161207092702.mp4","2016-12-07 09:27:09","2016-12-07 09:27:09"
97,"asdsadsad","msg2","2016-12-07/img_20161207092736.png","files/videos/2016-12-07/vid_20161207092737.mp4","2016-12-07 09:27:45","2016-12-07 09:27:45"
98,"asdasdasd","msg2","2016-12-07/img_20161207093154.png","files/videos/2016-12-07/vid_20161207093156.mp4","2016-12-07 09:32:02","2016-12-07 09:32:02"
99,"asdasd","msg2","2016-12-07/img_20161207093545.png","files/videos/2016-12-07/vid_20161207093546.mp4","2016-12-07 09:35:52","2016-12-07 09:35:52"
100,"asdasdsad","msg2","2016-12-07/img_20161207093640.png","files/videos/2016-12-07/vid_20161207093641.mp4","2016-12-07 09:36:47","2016-12-07 09:36:47"
101,"asdasdsad","msg2","2016-12-07/img_20161207094100.png","files/videos/2016-12-07/vid_20161207094102.mp4","2016-12-07 09:41:07","2016-12-07 09:41:07"
102,"asdsdsdasd","msg2","2016-12-07/img_20161207094237.png","files/videos/2016-12-07/vid_20161207094239.mp4","2016-12-07 09:42:44","2016-12-07 09:42:44"
103,"asdsad","msg2","2016-12-07/img_20161207094348.png","files/videos/2016-12-07/vid_20161207094349.mp4","2016-12-07 09:43:55","2016-12-07 09:43:55"
104,"asdasdsad","msg2","2016-12-07/img_20161207094629.png","files/videos/2016-12-07/vid_20161207094630.mp4","2016-12-07 09:46:36","2016-12-07 09:46:36"
105,"asdasdsadasdasd","msg1","2016-12-07/img_20161207094904.png","files/videos/2016-12-07/vid_20161207094905.mp4","2016-12-07 09:49:11","2016-12-07 09:49:11"
106,"fariz izwana sdsadsadasdsad","msg2","2016-12-07/img_20161207095052.png","files/videos/2016-12-07/vid_20161207095054.mp4","2016-12-07 09:51:00","2016-12-07 09:51:00"
107,"babsnnss","msg1","2016-12-07/img_20161207095230.png","files/videos/2016-12-07/vid_20161207095232.mp4","2016-12-07 09:52:38","2016-12-07 09:52:38"
108,"asdasdasd","msg2","2016-12-07/img_20161207095412.png","files/videos/2016-12-07/vid_20161207095414.mp4","2016-12-07 09:54:20","2016-12-07 09:54:20"
109,"sdsadasdasdsd","msg2","2016-12-07/img_20161207100804.png","files/videos/2016-12-07/vid_20161207100806.mp4","2016-12-07 10:08:12","2016-12-07 10:08:12"
110,"asdsadad","msg2","2016-12-07/img_20161207100954.png","files/videos/2016-12-07/vid_20161207100956.mp4","2016-12-07 10:10:02","2016-12-07 10:10:02"
111,"asdasdasd","msg2","2016-12-07/img_20161207101206.png","files/videos/2016-12-07/vid_20161207101208.mp4","2016-12-07 10:12:14","2016-12-07 10:12:14"
112,"asdasd","msg1","2016-12-07/img_20161207101534.png","files/videos/2016-12-07/vid_20161207101535.mp4","2016-12-07 10:15:42","2016-12-07 10:15:42"
113,"asdasdasdsad","msg2","2016-12-07/img_20161207102123.png","files/videos/2016-12-07/vid_20161207102124.mp4","2016-12-07 10:21:32","2016-12-07 10:21:32"
114,"asdasdasdsd","msg2","2016-12-07/img_20161207102251.png","files/videos/2016-12-07/vid_20161207102253.mp4","2016-12-07 10:22:59","2016-12-07 10:22:59"
115,"asdasdsd","msg2","2016-12-07/img_20161207102333.png","files/videos/2016-12-07/vid_20161207102335.mp4","2016-12-07 10:23:42","2016-12-07 10:23:42"
116,"sadadsd","msg2","2016-12-07/img_20161207102350.png","files/videos/2016-12-07/vid_20161207102351.mp4","2016-12-07 10:23:58","2016-12-07 10:23:58"
117,"sadadsd","msg2","2016-12-07/img_20161207102530.png","files/videos/2016-12-07/vid_20161207102532.mp4","2016-12-07 10:25:38","2016-12-07 10:25:38"
118,"asdasdsad","msg2","2016-12-07/img_20161207102645.png","files/videos/2016-12-07/vid_20161207102647.mp4","2016-12-07 10:26:53","2016-12-07 10:26:53"
119,"asdasdsd","msg2","2016-12-07/img_20161207102727.png","files/videos/2016-12-07/vid_20161207102729.mp4","2016-12-07 10:27:35","2016-12-07 10:27:35"
120,"asdasdsd","msg2","2016-12-07/img_20161207102739.png","files/videos/2016-12-07/vid_20161207102740.mp4","2016-12-07 10:27:46","2016-12-07 10:27:46"
121,"asdasdasdasdasdasdasdsadsadsadsadsd","msg1","2016-12-07/img_20161207102811.png","files/videos/2016-12-07/vid_20161207102812.mp4","2016-12-07 10:28:18","2016-12-07 10:28:18"
122,"sadasdsad","msg2","2016-12-07/img_20161207103240.png","files/videos/2016-12-07/vid_20161207103241.mp4","2016-12-07 10:32:47","2016-12-07 10:32:47"
123,"asdsadasd","msg2","2016-12-07/img_20161207103622.png","files/videos/2016-12-07/vid_20161207103623.mp4","2016-12-07 10:36:29","2016-12-07 10:36:29"
124,"asdsadasd","msg2","2016-12-07/img_20161207103720.png","files/videos/2016-12-07/vid_20161207103721.mp4","2016-12-07 10:37:28","2016-12-07 10:37:28"
125,"asdasds","msg2","2016-12-07/img_20161207103737.png","files/videos/2016-12-07/vid_20161207103739.mp4","2016-12-07 10:37:44","2016-12-07 10:37:44"
126,"fasfsadasdasdasda asdasdasd","msg2","2016-12-07/img_20161207103848.png","files/videos/2016-12-07/vid_20161207103850.mp4","2016-12-07 10:38:56","2016-12-07 10:38:56"
127,"asasdasdasdsd","msg2","2016-12-07/img_20161207104105.png","files/videos/2016-12-07/vid_20161207104106.mp4","2016-12-07 10:41:13","2016-12-07 10:41:13"
128,"asdasdsadasdsad","msg2","2016-12-07/img_20161207104205.png","files/videos/2016-12-07/vid_20161207104207.mp4","2016-12-07 10:42:12","2016-12-07 10:42:12"
129,"asdasdasdsad","msg2","2016-12-07/img_20161207104402.png","files/videos/2016-12-07/vid_20161207104403.mp4","2016-12-07 10:44:09","2016-12-07 10:44:09"
130,"asdasdsadsad","msg2","2016-12-07/img_20161207104557.png","files/videos/2016-12-07/vid_20161207104600.mp4","2016-12-07 10:46:06","2016-12-07 10:46:06"
131,"asdasdasd","msg2","2016-12-07/img_20161207104732.png","files/videos/2016-12-07/vid_20161207104734.mp4","2016-12-07 10:47:41","2016-12-07 10:47:41"
132,"sadasdsadsad","msg2","2016-12-07/img_20161207104902.png","files/videos/2016-12-07/vid_20161207104904.mp4","2016-12-07 10:49:11","2016-12-07 10:49:11"
133,"bsnnalkakanmans baja","msg1","2016-12-07/img_20161207104947.png","files/videos/2016-12-07/vid_20161207104949.mp4","2016-12-07 10:49:55","2016-12-07 10:49:55"
134,"fariz izwan & family","msg2","2016-12-07/img_20161207105136.png","files/videos/2016-12-07/vid_20161207105138.mp4","2016-12-07 10:51:44","2016-12-07 10:51:44"
135,"fariz izwan kamarz","msg1","2016-12-07/img_20161207105331.png","files/videos/2016-12-07/vid_20161207105333.mp4","2016-12-07 10:53:40","2016-12-07 10:53:40"
136,"fariz izwan & family","msg2","2016-12-07/img_20161207105413.png","files/videos/2016-12-07/vid_20161207105414.mp4","2016-12-07 10:54:20","2016-12-07 10:54:20"
137,NULL,NULL,"2016-12-07/img_20161207105536.png",NULL,"2016-12-07 10:55:36","2016-12-07 10:55:36"
138,"fariz izawnak aksksdsd","msg2","2016-12-07/img_20161207105603.png","files/videos/2016-12-07/vid_20161207105605.mp4","2016-12-07 10:56:10","2016-12-07 10:56:10"
139,"fariz & family","msg2","2016-12-07/img_20161207105840.png","files/videos/2016-12-07/vid_20161207105841.mp4","2016-12-07 10:58:48","2016-12-07 10:58:48"
140,"fariz izwan & family","msg1","2016-12-07/img_20161207110049.png","files/videos/2016-12-07/vid_20161207110051.mp4","2016-12-07 11:00:57","2016-12-07 11:00:57"
141,"fariz & family ahahaha","msg1","2016-12-07/img_20161207110638.png","files/videos/2016-12-07/vid_20161207110640.mp4","2016-12-07 11:06:46","2016-12-07 11:06:46"
142,"fariz & family","msg2","2016-12-07/img_20161207111100.png","files/videos/2016-12-07/vid_20161207111101.mp4","2016-12-07 11:11:07","2016-12-07 11:11:07"
143,"fariz & family","msg1","2016-12-07/img_20161207111118.png","files/videos/2016-12-07/vid_20161207111120.mp4","2016-12-07 11:11:26","2016-12-07 11:11:26"
144,"fariz izwan & amsdmmsddsds","msg2","2016-12-07/img_20161207111546.png","files/videos/2016-12-07/vid_20161207111548.mp4","2016-12-07 11:15:54","2016-12-07 11:15:54"
145,"fariz izwan","msg2","2016-12-07/img_20161207112623.png","files/videos/2016-12-07/vid_20161207112625.mp4","2016-12-07 11:26:31","2016-12-07 11:26:31"
146,"fariz & family","msg2","2016-12-07/img_20161207112753.png","files/videos/2016-12-07/vid_20161207112754.mp4","2016-12-07 11:28:00","2016-12-07 11:28:00"
147,"sdasdasdsad","msg2","2016-12-07/img_20161207112813.png","files/videos/2016-12-07/vid_20161207112814.mp4","2016-12-07 11:28:20","2016-12-07 11:28:20"
148,"fariz & family","msg2","2016-12-07/img_20161207112919.png","files/videos/2016-12-07/vid_20161207112920.mp4","2016-12-07 11:29:26","2016-12-07 11:29:26"
149,"sadasdasdasdsad","msg2","2016-12-07/img_20161207113052.png","files/videos/2016-12-07/vid_20161207113053.mp4","2016-12-07 11:30:59","2016-12-07 11:30:59"
150,"FARIZ IZWAN KAMARUZZAMAN","msg2","2016-12-07/img_20161207113122.png","files/videos/2016-12-07/vid_20161207113124.mp4","2016-12-07 11:31:29","2016-12-07 11:31:29"
151,"asdaadasdasd","msg2","2016-12-07/img_20161207113226.png","files/videos/2016-12-07/vid_20161207113227.mp4","2016-12-07 11:32:34","2016-12-07 11:32:34"
152,"FARIZ IZWAN KAMARUZZAMAN","msg2","2016-12-07/img_20161207113246.png","files/videos/2016-12-07/vid_20161207113247.mp4","2016-12-07 11:32:54","2016-12-07 11:32:54"
153,"fariz IZWAN & family","msg2","2016-12-07/img_20161207113339.png","files/videos/2016-12-07/vid_20161207113341.mp4","2016-12-07 11:33:47","2016-12-07 11:33:47"
154,"fariz & family","msg1","2016-12-07/img_20161207113537.png","files/videos/2016-12-07/vid_20161207113539.mp4","2016-12-07 11:35:45","2016-12-07 11:35:45"
155,"fariz & family aaaaaaaaa","msg1","2016-12-07/img_20161207113817.png","files/videos/2016-12-07/vid_20161207113819.mp4","2016-12-07 11:38:25","2016-12-07 11:38:25"
156,"fariz izwan kamaruzzaman","msg1","2016-12-07/img_20161207113910.png","files/videos/2016-12-07/vid_20161207113911.mp4","2016-12-07 11:39:18","2016-12-07 11:39:18"
157,"fariz & family","msg2","2016-12-07/img_20161207113929.png","files/videos/2016-12-07/vid_20161207113931.mp4","2016-12-07 11:39:37","2016-12-07 11:39:37"
158,"fariz & family","msg1","2016-12-07/img_20161207114036.png","files/videos/2016-12-07/vid_20161207114037.mp4","2016-12-07 11:40:43","2016-12-07 11:40:43"
159,"fariz & family","msg2","2016-12-07/img_20161207114053.png","files/videos/2016-12-07/vid_20161207114055.mp4","2016-12-07 11:41:01","2016-12-07 11:41:01"
160,"fariz & family","msg1","2016-12-07/img_20161207114159.png","files/videos/2016-12-07/vid_20161207114201.mp4","2016-12-07 11:42:07","2016-12-07 11:42:07"
161,"fariz & family","msg1","2016-12-07/img_20161207114245.png","files/videos/2016-12-07/vid_20161207114247.mp4","2016-12-07 11:42:55","2016-12-07 11:42:55"
162,"fariz & family","msg1","2016-12-07/img_20161207114328.png","files/videos/2016-12-07/vid_20161207114330.mp4","2016-12-07 11:43:36","2016-12-07 11:43:36"
163,"fariz & family & hahaah","msg1","2016-12-07/img_20161207114531.png","files/videos/2016-12-07/vid_20161207114533.mp4","2016-12-07 11:45:39","2016-12-07 11:45:39"
164,"fariz & family","msg1","2016-12-07/img_20161207114854.png","files/videos/2016-12-07/vid_20161207114856.mp4","2016-12-07 11:49:03","2016-12-07 11:49:03"
165,"fariz & family","msg2","2016-12-07/img_20161207115116.png","files/videos/2016-12-07/vid_20161207115118.mp4","2016-12-07 11:51:24","2016-12-07 11:51:24"
166,"fariz & family","msg2","2016-12-07/img_20161207115253.png","files/videos/2016-12-07/vid_20161207115255.mp4","2016-12-07 11:53:01","2016-12-07 11:53:01"
167,"fariz & family","msg2","2016-12-07/img_20161207115426.png","files/videos/2016-12-07/vid_20161207115427.mp4","2016-12-07 11:54:34","2016-12-07 11:54:34"
168,"fariz izwan","msg2","2016-12-07/img_20161207115527.png","files/videos/2016-12-07/vid_20161207115528.mp4","2016-12-07 11:55:35","2016-12-07 11:55:35"
169,"fariz & family","msg1","2016-12-07/img_20161207115559.png","files/videos/2016-12-07/vid_20161207115601.mp4","2016-12-07 11:56:07","2016-12-07 11:56:07"
170,"fariz & family","msg2","2016-12-07/img_20161207120144.png","files/videos/2016-12-07/vid_20161207120146.mp4","2016-12-07 12:01:53","2016-12-07 12:01:53"
171,"fariz & family","msg2","2016-12-07/img_20161207120215.png","files/videos/2016-12-07/vid_20161207120217.mp4","2016-12-07 12:02:24","2016-12-07 12:02:24"
172,"fariz & family","msg1","2016-12-07/img_20161207121909.png","files/videos/2016-12-07/vid_20161207121910.mp4","2016-12-07 12:19:16","2016-12-07 12:19:16"
173,"fariz & family","msg1","2016-12-07/img_20161207122903.png","files/videos/2016-12-07/vid_20161207122904.mp4","2016-12-07 12:29:11","2016-12-07 12:29:11"
174,"fariz & Izwan","msg1","2016-12-07/img_20161207123547.png","files/videos/2016-12-07/vid_20161207123549.mp4","2016-12-07 12:35:56","2016-12-07 12:35:56"
175,"fariz & family","msg1","2016-12-07/img_20161207123625.png","files/videos/2016-12-07/vid_20161207123627.mp4","2016-12-07 12:36:33","2016-12-07 12:36:33"
176,"fariz & family","msg2","2016-12-07/img_20161207123946.png","files/videos/2016-12-07/vid_20161207123947.mp4","2016-12-07 12:39:53","2016-12-07 12:39:53"
177,"fariz & family","msg1","2016-12-07/img_20161207124603.png","files/videos/2016-12-07/vid_20161207124604.mp4","2016-12-07 12:46:11","2016-12-07 12:46:11"
178,"FARIZ & FAMILY LALALALALALALLALALALALASDASDASDASDASDASDASDASDASDASDASDASDSADALALLALALALASDASDASDASDA","msg1","2016-12-07/img_20161207124711.png","files/videos/2016-12-07/vid_20161207124713.mp4","2016-12-07 12:47:20","2016-12-07 12:47:20"
179,"fariz & hahahahaa & hehehehe","msg1","2016-12-07/img_20161207125209.png","files/videos/2016-12-07/vid_20161207125211.mp4","2016-12-07 12:52:18","2016-12-07 12:52:18"
180,"Test","msg1","2016-12-07/img_20161207125341.png","files/videos/2016-12-07/vid_20161207125343.mp4","2016-12-07 12:53:49","2016-12-07 12:53:49"
181,"Test & 10 %","msg3","2016-12-07/img_20161207125431.png","files/videos/2016-12-07/vid_20161207125432.mp4","2016-12-07 12:54:38","2016-12-07 12:54:38"
182,"fariz & family","msg2","2016-12-07/img_20161207125553.png","files/videos/2016-12-07/vid_20161207125555.mp4","2016-12-07 12:56:01","2016-12-07 12:56:01"
183,"fariz izwan & family","msg1","2016-12-07/img_20161207164958.png","files/videos/2016-12-07/vid_20161207165000.mp4","2016-12-07 16:50:07","2016-12-07 16:50:07"
184,"fariz izwan & family","msg1","2016-12-07/img_20161207165136.png","files/videos/2016-12-07/vid_20161207165138.mp4","2016-12-07 16:51:44","2016-12-07 16:51:44"
185,"fariz","msg1","2016-12-07/img_20161207165302.png","files/videos/2016-12-07/vid_20161207165304.mp4","2016-12-07 16:53:11","2016-12-07 16:53:11"
186,"fariz & izwan familu","msg2","2016-12-07/img_20161207165442.png","files/videos/2016-12-07/vid_20161207165444.mp4","2016-12-07 16:54:50","2016-12-07 16:54:50"
187,"fariz izwan & family","msg2","2016-12-07/img_20161207165627.png","files/videos/2016-12-07/vid_20161207165629.mp4","2016-12-07 16:56:36","2016-12-07 16:56:36"
188,"fariz izwan & family","msg3","2016-12-07/img_20161207170330.png","files/videos/2016-12-07/vid_20161207170331.mp4","2016-12-07 17:03:39","2016-12-07 17:03:39"
189,NULL,NULL,"2016-12-07/img_20161207170426.png",NULL,"2016-12-07 17:04:26","2016-12-07 17:04:26"
190,"fariz & family","msg1","2016-12-07/img_20161207170528.png","files/videos/2016-12-07/vid_20161207170530.mp4","2016-12-07 17:05:37","2016-12-07 17:05:37"
191,"fariz & family","msg1","2016-12-07/img_20161207170736.png","files/videos/2016-12-07/vid_20161207170738.mp4","2016-12-07 17:07:45","2016-12-07 17:07:45"
192,"faruz & famuly","msg1","2016-12-07/img_20161207172504.png","files/videos/2016-12-07/vid_20161207172506.mp4","2016-12-07 17:25:14","2016-12-07 17:25:14"
193,"fariz izwan & family","msg1","2016-12-07/img_20161207172607.png","files/videos/2016-12-07/vid_20161207172609.mp4","2016-12-07 17:26:16","2016-12-07 17:26:16"
194,"fariz & family uiijsns & jsjsjs","msg1","2016-12-07/img_20161207173419.png","files/videos/2016-12-07/vid_20161207173420.mp4","2016-12-07 17:34:26","2016-12-07 17:34:26"
195,"faruza & asdsadasd & dassdasdsd","msg1","2016-12-07/img_20161207173808.png","files/videos/2016-12-07/vid_20161207173809.mp4","2016-12-07 17:38:15","2016-12-07 17:38:15"
196,"fariz & family hahahaa","msg1","2016-12-07/img_20161207174008.png","files/videos/2016-12-07/vid_20161207174010.mp4","2016-12-07 17:40:17","2016-12-07 17:40:17"
197,"FARIZ IZWAN & FAMILY","msg1","2016-12-07/img_20161207174627.png","files/videos/2016-12-07/vid_20161207174629.mp4","2016-12-07 17:46:35","2016-12-07 17:46:35"
198,"putri&family","msg3","2016-12-07/img_20161207175405.png","files/videos/2016-12-07/vid_20161207175406.mp4","2016-12-07 17:54:12","2016-12-07 17:54:12"
199,"putri&family","msg3","2016-12-07/img_20161207175453.png","files/videos/2016-12-07/vid_20161207175454.mp4","2016-12-07 17:55:01","2016-12-07 17:55:01"
200,"putri & family","msg1","2016-12-07/img_20161207175647.png","files/videos/2016-12-07/vid_20161207175648.mp4","2016-12-07 17:56:55","2016-12-07 17:56:55"
201,"sdasdasddsad","msg1","2016-12-07/img_20161207175746.png","files/videos/2016-12-07/vid_20161207175748.mp4","2016-12-07 17:57:54","2016-12-07 17:57:54"
202,"fariz & family","msg2","2016-12-07/img_20161207175828.png","files/videos/2016-12-07/vid_20161207175830.mp4","2016-12-07 17:58:38","2016-12-07 17:58:38"
203,"fariz & family","msg2","2016-12-07/img_20161207180422.png","files/videos/2016-12-07/vid_20161207180424.mp4","2016-12-07 18:04:30","2016-12-07 18:04:30"
204,"fariz & fariz & fariz","msg1","2016-12-07/img_20161207180525.png","files/videos/2016-12-07/vid_20161207180527.mp4","2016-12-07 18:05:34","2016-12-07 18:05:34"
205,"fariz izwan & family","msg1","2016-12-07/img_20161207182000.png","files/videos/2016-12-07/vid_20161207182001.mp4","2016-12-07 18:20:07","2016-12-07 18:20:07"
206,"fariz & family","msg1","2016-12-07/img_20161207182211.png","files/videos/2016-12-07/vid_20161207182213.mp4","2016-12-07 18:22:19","2016-12-07 18:22:19"
207,"fariz & family","msg1","2016-12-07/img_20161207182514.png","files/videos/2016-12-07/vid_20161207182516.mp4","2016-12-07 18:25:22","2016-12-07 18:25:22"
208,"fariz izwan & family","msg1","2016-12-07/img_20161207182537.png","files/videos/2016-12-07/vid_20161207182539.mp4","2016-12-07 18:25:45","2016-12-07 18:25:45"
209,"fariz & family","msg1","2016-12-07/img_20161207182717.png","files/videos/2016-12-07/vid_20161207182718.mp4","2016-12-07 18:27:25","2016-12-07 18:27:25"
210,"fariz & fariz & fariz","msg1","2016-12-07/img_20161207182806.png","files/videos/2016-12-07/vid_20161207182807.mp4","2016-12-07 18:28:14","2016-12-07 18:28:14"
211,"fariz izwan & family","msg2","2016-12-07/img_20161207191847.png","files/videos/2016-12-07/vid_20161207191849.mp4","2016-12-07 19:18:55","2016-12-07 19:18:55"
212,"fariz & family","msg1","2016-12-08/img_20161208005753.png","files/videos/2016-12-08/vid_20161208005755.mp4","2016-12-08 00:58:01","2016-12-08 00:58:01"
213,"Chan see wooi","msg1","2016-12-08/img_20161208011746.png","files/videos/2016-12-08/vid_20161208011748.mp4","2016-12-08 01:17:54","2016-12-08 01:17:54"
214,"Chan see wooi","msg1","2016-12-08/img_20161208011927.png","files/videos/2016-12-08/vid_20161208011928.mp4","2016-12-08 01:19:35","2016-12-08 01:19:35"
215,"Ghjhh","msg1","2016-12-08/img_20161208034753.png","files/videos/2016-12-08/vid_20161208034754.mp4","2016-12-08 03:48:00","2016-12-08 03:48:00"
216,"fariz & family","msg1","2016-12-08/img_20161208060859.png",NULL,"2016-12-08 06:09:01","2016-12-08 06:09:01"
217,"fariz & family","msg1","2016-12-08/img_20161208060911.png",NULL,"2016-12-08 06:09:12","2016-12-08 06:09:12"
218,"fariz & family","msg1","2016-12-08/img_20161208061104.png","files/videos/2016-12-08/vid_20161208061105.mp4","2016-12-08 06:11:12","2016-12-08 06:11:12"
219,"fariz & family","msg1","2016-12-08/img_20161208061200.png","files/videos/2016-12-08/vid_20161208061201.mp4","2016-12-08 06:12:09","2016-12-08 06:12:09"
220,"fariz & family","msg1","2016-12-08/img_20161208061237.png","files/videos/2016-12-08/vid_20161208061239.mp4","2016-12-08 06:12:46","2016-12-08 06:12:46"
221,"fariz & family","msg1","2016-12-08/img_20161208062006.png",NULL,"2016-12-08 06:20:06","2016-12-08 06:20:06"
222,"fariz & family","msg1","2016-12-08/img_20161208062105.png",NULL,"2016-12-08 06:21:05","2016-12-08 06:21:05"
223,"fariz & family","msg1","2016-12-08/img_20161208062126.png",NULL,"2016-12-08 06:21:26","2016-12-08 06:21:26"
224,"fariz & family","msg1","2016-12-08/img_20161208062216.png",NULL,"2016-12-08 06:22:17","2016-12-08 06:22:17"
225,"fariz & family","msg1","2016-12-08/img_20161208062253.png","files/videos/2016-12-08/vid_20161208062255.mp4","2016-12-08 06:23:01","2016-12-08 06:23:01"
226,"fariz & family","msg1","2016-12-08/img_20161208064739.png","files/videos/2016-12-08/vid_20161208064741.mp4","2016-12-08 06:47:47","2016-12-08 06:47:47"
227,"hahahaha & janajana","msg1","2016-12-08/img_20161208064823.png","files/videos/2016-12-08/vid_20161208064824.mp4","2016-12-08 06:48:30","2016-12-08 06:48:30"
228,"","msg3","2016-12-08/img_20161208065639.png","files/videos/2016-12-08/vid_20161208065641.mp4","2016-12-08 06:56:47","2016-12-08 06:56:47"
229,"fariz & family","msg3","2016-12-08/img_20161208065656.png","files/videos/2016-12-08/vid_20161208065657.mp4","2016-12-08 06:57:03","2016-12-08 06:57:03"
230,"fariz & family","msg3","2016-12-08/img_20161208065715.png","files/videos/2016-12-08/vid_20161208065717.mp4","2016-12-08 06:57:24","2016-12-08 06:57:24"
231,"fariz & family","msg2","2016-12-08/img_20161208070032.png","files/videos/2016-12-08/vid_20161208070032.mp4","2016-12-08 07:00:38","2016-12-08 07:00:38"
232,"fariz & fariz & Hahaahaja","msg1","2016-12-08/img_20161208070153.png","files/videos/2016-12-08/vid_20161208070153.mp4","2016-12-08 07:01:59","2016-12-08 07:01:59"
233,"Hopena team","msg2","2016-12-08/img_20161208070303.png","files/videos/2016-12-08/vid_20161208070303.mp4","2016-12-08 07:03:10","2016-12-08 07:03:10"
234,"fasdasdasdasdasdsad","msg2","2016-12-08/img_20161208071034.png","files/videos/2016-12-08/vid_20161208071034.mp4","2016-12-08 07:10:40","2016-12-08 07:10:40"
235,"fasdasdasdasdasdsad","msg2","2016-12-08/img_20161208071301.png","files/videos/2016-12-08/vid_20161208071301.mp4","2016-12-08 07:13:07","2016-12-08 07:13:07"
236,"fasdasdasdasdasdsad","msg2","2016-12-08/img_20161208071349.png","files/videos/2016-12-08/vid_20161208071349.mp4","2016-12-08 07:13:56","2016-12-08 07:13:56"
237,"fasdasdasdasdasdsad","msg2","2016-12-08/img_20161208071435.png","files/videos/2016-12-08/vid_20161208071435.mp4","2016-12-08 07:14:41","2016-12-08 07:14:41"
238,"fasdasdasdasdasdsad","msg2","2016-12-08/img_20161208071611.png","files/videos/2016-12-08/vid_20161208071611.mp4","2016-12-08 07:16:16","2016-12-08 07:16:16"
239,"fariz & family","msg2","2016-12-08/img_20161208071651.png","files/videos/2016-12-08/vid_20161208071651.mp4","2016-12-08 07:16:57","2016-12-08 07:16:57"
240,"fariz & family","msg2","2016-12-08/img_20161208071724.png","files/videos/2016-12-08/vid_20161208071724.mp4","2016-12-08 07:17:30","2016-12-08 07:17:30"
241,"fariz & family","msg2","2016-12-08/img_20161208071900.png","files/videos/2016-12-08/vid_20161208071900.mp4","2016-12-08 07:19:07","2016-12-08 07:19:07"
242,"FARIZ","msg2","2016-12-08/img_20161208071917.png","files/videos/2016-12-08/vid_20161208071917.mp4","2016-12-08 07:19:23","2016-12-08 07:19:23"
243,"fariz","msg2","2016-12-08/img_20161208072243.png","files/videos/2016-12-08/vid_20161208072244.mp4","2016-12-08 07:22:49","2016-12-08 07:22:49"
244,"fariz","msg2","2016-12-08/img_20161208072304.png","files/videos/2016-12-08/vid_20161208072304.mp4","2016-12-08 07:23:10","2016-12-08 07:23:10"
245,"FARIZ","msg2","2016-12-08/img_20161208075713.png","files/videos/2016-12-08/vid_20161208075713.mp4","2016-12-08 07:57:20","2016-12-08 07:57:20"
246,"FARIZ","msg2","2016-12-08/img_20161208080539.png","files/videos/2016-12-08/vid_20161208080539.mp4","2016-12-08 08:05:46","2016-12-08 08:05:46"
247,"FARIZ","msg2","2016-12-08/img_20161208080638.png","files/videos/2016-12-08/vid_20161208080638.mp4","2016-12-08 08:06:44","2016-12-08 08:06:44"
248,"FARIZ","msg2","2016-12-08/img_20161208080729.png","files/videos/2016-12-08/vid_20161208080729.mp4","2016-12-08 08:07:36","2016-12-08 08:07:36"
249,"FARIZ","msg2","2016-12-08/img_20161208080843.png","files/videos/2016-12-08/vid_20161208080843.mp4","2016-12-08 08:08:49","2016-12-08 08:08:49"
250,"FARIZ","msg2","2016-12-08/img_20161208080934.png","files/videos/2016-12-08/vid_20161208080934.mp4","2016-12-08 08:09:41","2016-12-08 08:09:41"
251,"FARIZ","msg2","2016-12-08/img_20161208081020.png","files/videos/2016-12-08/vid_20161208081020.mp4","2016-12-08 08:10:26","2016-12-08 08:10:26"
252,"FARIZ","msg2","2016-12-08/img_20161208081125.png","files/videos/2016-12-08/vid_20161208081125.mp4","2016-12-08 08:11:31","2016-12-08 08:11:31"
253,"FARIZ","msg2","2016-12-08/img_20161208081203.png","files/videos/2016-12-08/vid_20161208081203.mp4","2016-12-08 08:12:09","2016-12-08 08:12:09"
254,"FARIZ","msg2","2016-12-08/img_20161208081243.png","files/videos/2016-12-08/vid_20161208081243.mp4","2016-12-08 08:12:49","2016-12-08 08:12:49"
255,"FARIZ","msg2","2016-12-08/img_20161208081321.png","files/videos/2016-12-08/vid_20161208081321.mp4","2016-12-08 08:13:27","2016-12-08 08:13:27"
256,"a","msg1","2016-12-08/img_20161208081338.png","files/videos/2016-12-08/vid_20161208081339.mp4","2016-12-08 08:13:45","2016-12-08 08:13:45"
257,"a","msg1","2016-12-08/img_20161208081555.png","files/videos/2016-12-08/vid_20161208081555.mp4","2016-12-08 08:16:01","2016-12-08 08:16:01"
258,"a","msg1","2016-12-08/img_20161208081635.png","files/videos/2016-12-08/vid_20161208081635.mp4","2016-12-08 08:16:41","2016-12-08 08:16:41"
259,"FARIZ","msg2","2016-12-08/img_20161208081711.png","files/videos/2016-12-08/vid_20161208081711.mp4","2016-12-08 08:17:17","2016-12-08 08:17:17"
260,"FARIZ","msg2","2016-12-08/img_20161208081750.png","files/videos/2016-12-08/vid_20161208081750.mp4","2016-12-08 08:17:57","2016-12-08 08:17:57"
261,"fariz izwan & family hahahaha","msg2","2016-12-08/img_20161208081819.png","files/videos/2016-12-08/vid_20161208081819.mp4","2016-12-08 08:18:26","2016-12-08 08:18:26"
262,"Hopena & friends & All","msg2","2016-12-08/img_20161208081918.png","files/videos/2016-12-08/vid_20161208081918.mp4","2016-12-08 08:19:25","2016-12-08 08:19:25"
263,"fariz & family","msg2","2016-12-08/img_20161208082128.png","files/videos/2016-12-08/vid_20161208082128.mp4","2016-12-08 08:21:34","2016-12-08 08:21:34"
264,"Hopena team ","msg2","2016-12-08/img_20161208082233.png","files/videos/2016-12-08/vid_20161208082233.mp4","2016-12-08 08:22:40","2016-12-08 08:22:40"
265,"nucleus berhad","msg1","2016-12-08/img_20161208083537.png","files/videos/2016-12-08/vid_20161208083537.mp4","2016-12-08 08:35:43","2016-12-08 08:35:43"
266,"Nucleus Berhad ","msg2","2016-12-08/img_20161208083652.png","files/videos/2016-12-08/vid_20161208083652.mp4","2016-12-08 08:36:58","2016-12-08 08:36:58"
267,NULL,NULL,"2016-12-08/img_20161208094929.png",NULL,"2016-12-08 09:49:29","2016-12-08 09:49:29"
268,NULL,NULL,"2016-12-08/img_20161208094936.png",NULL,"2016-12-08 09:49:36","2016-12-08 09:49:36"
269,"fannna","msg1","2016-12-08/img_20161208095312.png","files/videos/2016-12-08/vid_20161208095312.mp4","2016-12-08 09:53:20","2016-12-08 09:53:20"
270,"Fariz zknkak & jjaajajaj","msg1","2016-12-08/img_20161208095529.png","files/videos/2016-12-08/vid_20161208095529.mp4","2016-12-08 09:55:35","2016-12-08 09:55:35"
271,"fariz & family","msg1","2016-12-08/img_20161208100113.png","files/videos/2016-12-08/vid_20161208100113.mp4","2016-12-08 10:01:19","2016-12-08 10:01:19"
272,"fariz izwan & ajajajaja","msg3","2016-12-08/img_20161208100144.png","files/videos/2016-12-08/vid_20161208100144.mp4","2016-12-08 10:01:53","2016-12-08 10:01:53"
273,"fariz izwan","msg1","2016-12-08/img_20161208102251.png","files/videos/2016-12-08/vid_20161208102252.mp4","2016-12-08 10:22:58","2016-12-08 10:22:58"
274,"kjhkjh","msg2","2016-12-08/img_20161208102947.png","files/videos/2016-12-08/vid_20161208102947.mp4","2016-12-08 10:29:54","2016-12-08 10:29:54"
275,"Chan & Family ","msg3","2016-12-08/img_20161208103205.png","files/videos/2016-12-08/vid_20161208103205.mp4","2016-12-08 10:32:12","2016-12-08 10:32:12"
276,"FARIZ IZWAN & FAMILY","msg2","2016-12-08/img_20161208234915.png","files/videos/2016-12-08/vid_20161208234915.mp4","2016-12-08 23:49:21","2016-12-08 23:49:21"
277,"jhajhahahah & hashdhdhsd ^%#@@!@","msg1","2016-12-08/img_20161208234952.png","files/videos/2016-12-08/vid_20161208234952.mp4","2016-12-08 23:49:59","2016-12-08 23:49:59"
278,"test wakakaka & ASD@#!@#@!","msg2","2016-12-09/img_20161209001034.png","files/videos/2016-12-09/vid_20161209001034.mp4","2016-12-09 00:10:41","2016-12-09 00:10:41"
279,"fariz izwan & £-£-£--££/hahaha","msg1","2016-12-09/img_20161209001643.png","files/videos/2016-12-09/vid_20161209001643.mp4","2016-12-09 00:16:49","2016-12-09 00:16:49"
280,"hahaahah $$@!@!!!!!!","msg2","2016-12-09/img_20161209002224.png","files/videos/2016-12-09/vid_20161209002224.mp4","2016-12-09 00:22:31","2016-12-09 00:22:31"
281,"jajsdjasdasd !!!@#@#@$#^%$&$^&^*(*(","msg2","2016-12-09/img_20161209002920.png","files/videos/2016-12-09/vid_20161209002920.mp4","2016-12-09 00:29:27","2016-12-09 00:29:27"
282,"Timothy teoh","msg2","2016-12-09/img_20161209030208.png","files/videos/2016-12-09/vid_20161209030208.mp4","2016-12-09 03:02:14","2016-12-09 03:02:14"
283,"anna","msg1","2016-12-09/img_20161209053637.png","files/videos/2016-12-09/vid_20161209053637.mp4","2016-12-09 05:36:44","2016-12-09 05:36:44"
284,"anna","msg1","2016-12-09/img_20161209053652.png","files/videos/2016-12-09/vid_20161209053652.mp4","2016-12-09 05:37:00","2016-12-09 05:37:00"
285,"Chan & Family","msg2","2016-12-09/img_20161209073509.png","files/videos/2016-12-09/vid_20161209073509.mp4","2016-12-09 07:35:14","2016-12-09 07:35:14"
286,"ererewr","msg1","2016-12-09/img_20161209073834.png","files/videos/2016-12-09/vid_20161209073834.mp4","2016-12-09 07:38:39","2016-12-09 07:38:39"
287,"Chan ","msg1","2016-12-09/img_20161209074137.png","files/videos/2016-12-09/vid_20161209074137.mp4","2016-12-09 07:41:42","2016-12-09 07:41:42"
288,"chan","msg3","2016-12-09/img_20161209074634.png","files/videos/2016-12-09/vid_20161209074634.mp4","2016-12-09 07:46:40","2016-12-09 07:46:40"
289,123213,"msg2","2016-12-09/img_20161209125459.png","files/videos/2016-12-09/vid_20161209125459.mp4","2016-12-09 12:55:03","2016-12-09 12:55:03"
290,"Timothy teoh","msg1","2016-12-10/img_20161210062904.png","files/videos/2016-12-10/vid_20161210062904.mp4","2016-12-10 06:29:09","2016-12-10 06:29:09"
291,"fariz izwan","msg2","2016-12-13/img_20161213040044.png","files/videos/2016-12-13/vid_20161213040044.mp4","2016-12-13 04:00:49","2016-12-13 04:00:49"
292,"asdad","msg1","2016-12-13/img_20161213081200.png","files/videos/2016-12-13/vid_20161213081200.mp4","2016-12-13 08:12:05","2016-12-13 08:12:05"
293,"fariz & family","msg2","2016-12-13/img_20161213083044.png","files/videos/2016-12-13/vid_20161213083044.mp4","2016-12-13 08:30:48","2016-12-13 08:30:48"
294,"fariz & family","msg1","2016-12-13/img_20161213083117.png","files/videos/2016-12-13/vid_20161213083117.mp4","2016-12-13 08:31:21","2016-12-13 08:31:21"
295,"fariz & family","msg1","2016-12-13/img_20161213085426.png","files/videos/2016-12-13/vid_20161213085426.mp4","2016-12-13 08:54:30","2016-12-13 08:54:30"
296,"fariz & family","msg1","2016-12-13/img_20161213085644.png","files/videos/2016-12-13/vid_20161213085644.mp4","2016-12-13 08:56:48","2016-12-13 08:56:48"
297,"fariz & family","msg2","2016-12-13/img_20161213085901.png","files/videos/2016-12-13/vid_20161213085901.mp4","2016-12-13 08:59:06","2016-12-13 08:59:06"
298,"asdasdasdasd","msg1","2016-12-13/img_20161213085932.png","files/videos/2016-12-13/vid_20161213085932.mp4","2016-12-13 08:59:37","2016-12-13 08:59:37"
299,"asdasdasdasd","msg1","2016-12-13/img_20161213090000.png","files/videos/2016-12-13/vid_20161213090000.mp4","2016-12-13 09:00:05","2016-12-13 09:00:05"
300,"fariz & family","msg1","2016-12-13/img_20161213090207.png","files/videos/2016-12-13/vid_20161213090207.mp4","2016-12-13 09:02:11","2016-12-13 09:02:11"
301,"fariz & family","msg2","2016-12-13/img_20161213090225.png","files/videos/2016-12-13/vid_20161213090225.mp4","2016-12-13 09:02:30","2016-12-13 09:02:30"
302,"fariz & family","msg2","2016-12-13/img_20161213090308.png","files/videos/2016-12-13/vid_20161213090308.mp4","2016-12-13 09:03:12","2016-12-13 09:03:12"
303,"FARIZ & FAMILY LALALALALALALLALALAL","msg1","2016-12-13/img_20161213090930.png","files/videos/2016-12-13/vid_20161213090930.mp4","2016-12-13 09:09:35","2016-12-13 09:09:35"
304,"FARIZ & FAMILY LALALALALALALLALALAL","msg2","2016-12-13/img_20161213091007.png","files/videos/2016-12-13/vid_20161213091007.mp4","2016-12-13 09:10:11","2016-12-13 09:10:11"
305,"fariz","msg2","2016-12-13/img_20161213091146.png","files/videos/2016-12-13/vid_20161213091146.mp4","2016-12-13 09:11:50","2016-12-13 09:11:50"
306,"fariz iz w","msg1","2016-12-13/img_20161213091848.png","files/videos/2016-12-13/vid_20161213091848.mp4","2016-12-13 09:18:53","2016-12-13 09:18:53"
307,"fariz izwan & wakakaa","msg1","2016-12-13/img_20161213092234.png","files/videos/2016-12-13/vid_20161213092234.mp4","2016-12-13 09:22:38","2016-12-13 09:22:38"
308,"heheheehe & wakakaam","msg1","2016-12-13/img_20161213092533.png","files/videos/2016-12-13/vid_20161213092533.mp4","2016-12-13 09:25:38","2016-12-13 09:25:38"
309,"fariz & family","msg2","2016-12-13/img_20161213093112.png","files/videos/2016-12-13/vid_20161213093112.mp4","2016-12-13 09:31:16","2016-12-13 09:31:16"
310,"fariz & family","msg2","2016-12-13/img_20161213093325.png","files/videos/2016-12-13/vid_20161213093325.mp4","2016-12-13 09:33:29","2016-12-13 09:33:29"
311,"fariz & family","msg2","2016-12-13/img_20161213093753.png","files/videos/2016-12-13/vid_20161213093753.mp4","2016-12-13 09:37:57","2016-12-13 09:37:57"
312,"fariz & family","msg2","2016-12-13/img_20161213093815.png","files/videos/2016-12-13/vid_20161213093815.mp4","2016-12-13 09:38:19","2016-12-13 09:38:19"
313,"fariz & family","msg1","2016-12-13/img_20161213094055.png","files/videos/2016-12-13/vid_20161213094055.mp4","2016-12-13 09:41:00","2016-12-13 09:41:00"
314,"fariz & family","msg2","2016-12-13/img_20161213171640.png","files/videos/2016-12-13/vid_20161213171640.mp4","2016-12-13 17:16:44","2016-12-13 17:16:44"
315,"chan","msg1","2016-12-14/img_20161214013540.png","files/videos/2016-12-14/vid_20161214013540.mp4","2016-12-14 01:35:45","2016-12-14 01:35:45"
316,"qweqwe","msg2","2016-12-14/img_20161214013602.png","files/videos/2016-12-14/vid_20161214013602.mp4","2016-12-14 01:36:07","2016-12-14 01:36:07"
317,"asdasd","msg1","2016-12-14/img_20161214025526.png","files/videos/2016-12-14/vid_20161214025526.mp4","2016-12-14 02:55:31","2016-12-14 02:55:31"
318,"qewqe","msg1","2016-12-14/img_20161214025701.png","files/videos/2016-12-14/vid_20161214025701.mp4","2016-12-14 02:57:05","2016-12-14 02:57:05"
319,"Michelle & Family","msg2","2016-12-14/img_20161214035613.png","files/videos/2016-12-14/vid_20161214035613.mp4","2016-12-14 03:56:18","2016-12-14 03:56:18"
320,"Ai nah","msg3","2016-12-14/img_20161214035921.png","files/videos/2016-12-14/vid_20161214035921.mp4","2016-12-14 03:59:25","2016-12-14 03:59:25"
321,"B","msg3","2016-12-14/img_20161214063226.png","files/videos/2016-12-14/vid_20161214063226.mp4","2016-12-14 06:32:30","2016-12-14 06:32:30"
322,"Ray","msg2","2016-12-16/img_20161216051746.png","files/videos/2016-12-16/vid_20161216051747.mp4","2016-12-16 05:17:52","2016-12-16 05:17:52"
323,"Ching yie","msg2","2016-12-19/img_20161219074227.png","files/videos/2016-12-19/vid_20161219074227.mp4","2016-12-19 07:42:31","2016-12-19 07:42:31"
324,"Jess YONG","msg3","2016-12-19/img_20161219074600.png","files/videos/2016-12-19/vid_20161219074600.mp4","2016-12-19 07:46:06","2016-12-19 07:46:06"
325,"TK","msg1","2016-12-19/img_20161219090733.png","files/videos/2016-12-19/vid_20161219090733.mp4","2016-12-19 09:07:37","2016-12-19 09:07:37"
326,"Daniel loke","msg2","2016-12-19/img_20161219095739.png","files/videos/2016-12-19/vid_20161219095739.mp4","2016-12-19 09:57:43","2016-12-19 09:57:43"
327,"Lee family","msg2","2016-12-19/img_20161219103411.png","files/videos/2016-12-19/vid_20161219103411.mp4","2016-12-19 10:34:16","2016-12-19 10:34:16"
328,"Chingyie","msg3","2016-12-19/img_20161219121533.png","files/videos/2016-12-19/vid_20161219121533.mp4","2016-12-19 12:15:38","2016-12-19 12:15:38"
329,"TK","msg2","2016-12-19/img_20161219142818.png","files/videos/2016-12-19/vid_20161219142818.mp4","2016-12-19 14:28:24","2016-12-19 14:28:24"
330,"Peifen","msg1","2016-12-20/img_20161220072750.png","files/videos/2016-12-20/vid_20161220072750.mp4","2016-12-20 07:27:55","2016-12-20 07:27:55"
331,"Ervina","msg3","2016-12-20/img_20161220073204.png","files/videos/2016-12-20/vid_20161220073204.mp4","2016-12-20 07:32:09","2016-12-20 07:32:09"
332,"peifen ","msg1","2016-12-20/img_20161220082156.png","files/videos/2016-12-20/vid_20161220082156.mp4","2016-12-20 08:22:02","2016-12-20 08:22:02"
333,"Windy Ang","msg2","2016-12-20/img_20161220091149.png","files/videos/2016-12-20/vid_20161220091149.mp4","2016-12-20 09:11:54","2016-12-20 09:11:54"
334,"PF","msg1","2016-12-22/img_20161222082846.png","files/videos/2016-12-22/vid_20161222082846.mp4","2016-12-22 08:28:51","2016-12-22 08:28:51"
335,"Yig","msg3","2016-12-22/img_20161222082902.png","files/videos/2016-12-22/vid_20161222082902.mp4","2016-12-22 08:29:07","2016-12-22 08:29:07"
336,"妹妹😂","msg3","2016-12-22/img_20161222082931.png","files/videos/2016-12-22/vid_20161222082931.mp4","2016-12-22 08:29:36","2016-12-22 08:29:36"
337,"YANG SHU FEN","msg2","2016-12-22/img_20161222082947.png","files/videos/2016-12-22/vid_20161222082947.mp4","2016-12-22 08:29:51","2016-12-22 08:29:51"
338,"XINYI","msg3","2016-12-22/img_20161222082951.png","files/videos/2016-12-22/vid_20161222082951.mp4","2016-12-22 08:29:56","2016-12-22 08:29:56"
339,"Amy","msg3","2016-12-22/img_20161222082955.png","files/videos/2016-12-22/vid_20161222082955.mp4","2016-12-22 08:30:00","2016-12-22 08:30:00"
340,"Amy","msg3","2016-12-22/img_20161222083035.png","files/videos/2016-12-22/vid_20161222083035.mp4","2016-12-22 08:30:39","2016-12-22 08:30:39"
341,"妹妹😂","msg3","2016-12-22/img_20161222083056.png","files/videos/2016-12-22/vid_20161222083057.mp4","2016-12-22 08:31:01","2016-12-22 08:31:01"
342,"Amy","msg3","2016-12-22/img_20161222083116.png","files/videos/2016-12-22/vid_20161222083116.mp4","2016-12-22 08:31:21","2016-12-22 08:31:21"
343,"Niao","msg1","2016-12-22/img_20161222083144.png","files/videos/2016-12-22/vid_20161222083144.mp4","2016-12-22 08:31:48","2016-12-22 08:31:48"
344,"bahahaahhaah","msg1","2016-12-22/img_20161222094640.png","files/videos/2016-12-22/vid_20161222094640.mp4","2016-12-22 09:46:44","2016-12-22 09:46:44"
345,"Niao","msg3","2016-12-22/img_20161222123012.png","files/videos/2016-12-22/vid_20161222123012.mp4","2016-12-22 12:30:16","2016-12-22 12:30:16"
346,"Niao","msg3","2016-12-22/img_20161222123044.png","files/videos/2016-12-22/vid_20161222123044.mp4","2016-12-22 12:30:49","2016-12-22 12:30:49"
347,"Esther ","msg1","2016-12-23/img_20161223021245.png","files/videos/2016-12-23/vid_20161223021245.mp4","2016-12-23 02:12:51","2016-12-23 02:12:51"
348,"peifen","msg2","2016-12-23/img_20161223024830.png","files/videos/2016-12-23/vid_20161223024830.mp4","2016-12-23 02:48:34","2016-12-23 02:48:34"
349,"Ervina","msg3","2016-12-23/img_20161223040907.png","files/videos/2016-12-23/vid_20161223040907.mp4","2016-12-23 04:09:12","2016-12-23 04:09:12"
350,"Chan","msg1","2016-12-23/img_20161223055918.png","files/videos/2016-12-23/vid_20161223055918.mp4","2016-12-23 05:59:22","2016-12-23 05:59:22"
351,"Ervina","msg3","2016-12-23/img_20161223100107.png","files/videos/2016-12-23/vid_20161223100107.mp4","2016-12-23 10:01:11","2016-12-23 10:01:11"
352,"Yeeboonkeat ","msg3","2016-12-26/img_20161226033635.png","files/videos/2016-12-26/vid_20161226033635.mp4","2016-12-26 03:36:40","2016-12-26 03:36:40"
353,"Felix liao","msg1","2016-12-26/img_20161226034017.png","files/videos/2016-12-26/vid_20161226034017.mp4","2016-12-26 03:40:22","2016-12-26 03:40:22"
354,"Ihsan & Family","msg2","2016-12-26/img_20161226040305.png","files/videos/2016-12-26/vid_20161226040305.mp4","2016-12-26 04:03:10","2016-12-26 04:03:10"
355,"Sharon Wong","msg2","2016-12-26/img_20161226041826.png","files/videos/2016-12-26/vid_20161226041826.mp4","2016-12-26 04:18:31","2016-12-26 04:18:31"
356,"hon tong n pik NGOr","msg3","2016-12-26/img_20161226080708.png","files/videos/2016-12-26/vid_20161226080708.mp4","2016-12-26 08:07:12","2016-12-26 08:07:12"
357,"Hontong n pik ngor ","msg3","2016-12-26/img_20161226081105.png","files/videos/2016-12-26/vid_20161226081105.mp4","2016-12-26 08:11:10","2016-12-26 08:11:10"
358,"Hontong n pikngor","msg3","2016-12-26/img_20161226081325.png","files/videos/2016-12-26/vid_20161226081325.mp4","2016-12-26 08:13:30","2016-12-26 08:13:30"
359,"Rodney","msg3","2016-12-26/img_20161226104414.png","files/videos/2016-12-26/vid_20161226104414.mp4","2016-12-26 10:44:19","2016-12-26 10:44:19"
360,"Kym liew","msg2","2016-12-27/img_20161227051004.png","files/videos/2016-12-27/vid_20161227051004.mp4","2016-12-27 05:10:10","2016-12-27 05:10:10"
361,"Carrie Pek","msg3","2016-12-27/img_20161227053832.png","files/videos/2016-12-27/vid_20161227053832.mp4","2016-12-27 05:38:36","2016-12-27 05:38:36"
362,"Tiffany Foo","msg3","2016-12-27/img_20161227064007.png","files/videos/2016-12-27/vid_20161227064007.mp4","2016-12-27 06:40:12","2016-12-27 06:40:12"
363,"Tan","msg1","2016-12-27/img_20161227065919.png","files/videos/2016-12-27/vid_20161227065919.mp4","2016-12-27 06:59:25","2016-12-27 06:59:25"
364,"Fenny Lee","msg3","2016-12-27/img_20161227084806.png","files/videos/2016-12-27/vid_20161227084806.mp4","2016-12-27 08:48:12","2016-12-27 08:48:12"
365,"Gary","msg2","2016-12-27/img_20161227093247.png","files/videos/2016-12-27/vid_20161227093247.mp4","2016-12-27 09:32:52","2016-12-27 09:32:52"
366,"Gary","msg3","2016-12-27/img_20161227093347.png","files/videos/2016-12-27/vid_20161227093347.mp4","2016-12-27 09:33:52","2016-12-27 09:33:52"
367,"XIANG EN","msg1","2016-12-27/img_20161227093529.png","files/videos/2016-12-27/vid_20161227093529.mp4","2016-12-27 09:35:33","2016-12-27 09:35:33"
368,"Wing","msg1","2016-12-27/img_20161227094140.png","files/videos/2016-12-27/vid_20161227094140.mp4","2016-12-27 09:41:45","2016-12-27 09:41:45"
369,"pang","msg3","2016-12-27/img_20161227100115.png","files/videos/2016-12-27/vid_20161227100115.mp4","2016-12-27 10:01:20","2016-12-27 10:01:20"
370,"gab gabby","msg2","2016-12-27/img_20161227115911.png","files/videos/2016-12-27/vid_20161227115911.mp4","2016-12-27 11:59:15","2016-12-27 11:59:15"
371,"Lyn","msg2","2016-12-27/img_20161227122636.png","files/videos/2016-12-27/vid_20161227122636.mp4","2016-12-27 12:26:40","2016-12-27 12:26:40"
372,"Lai Muk Sin","msg3","2016-12-27/img_20161227143850.png","files/videos/2016-12-27/vid_20161227143850.mp4","2016-12-27 14:38:54","2016-12-27 14:38:54"
373,"JAMES LIN TZY LUN","msg2","2016-12-27/img_20161227144347.png","files/videos/2016-12-27/vid_20161227144347.mp4","2016-12-27 14:43:51","2016-12-27 14:43:51"
374,"Festi lim","msg1","2016-12-27/img_20161227194949.png","files/videos/2016-12-27/vid_20161227194949.mp4","2016-12-27 19:49:54","2016-12-27 19:49:54"
375,"Jayanthi krishnan","msg1","2016-12-28/img_20161228003006.png","files/videos/2016-12-28/vid_20161228003006.mp4","2016-12-28 00:30:10","2016-12-28 00:30:10"
376,"Jayanthi krishnan","msg2","2016-12-28/img_20161228004244.png","files/videos/2016-12-28/vid_20161228004244.mp4","2016-12-28 00:42:48","2016-12-28 00:42:48"
377,"Jayanthi krishnan","msg3","2016-12-28/img_20161228004501.png","files/videos/2016-12-28/vid_20161228004502.mp4","2016-12-28 00:45:06","2016-12-28 00:45:06"
378,"Mr. Hamry yap darwin","msg3","2016-12-28/img_20161228014012.png","files/videos/2016-12-28/vid_20161228014012.mp4","2016-12-28 01:40:17","2016-12-28 01:40:17"
379,"Alex Chin","msg1","2016-12-28/img_20161228035947.png","files/videos/2016-12-28/vid_20161228035948.mp4","2016-12-28 03:59:53","2016-12-28 03:59:53"
380,"jblim","msg2","2016-12-28/img_20161228042647.png","files/videos/2016-12-28/vid_20161228042647.mp4","2016-12-28 04:26:52","2016-12-28 04:26:52"
381,"Jeby林德盈","msg3","2016-12-28/img_20161228042914.png","files/videos/2016-12-28/vid_20161228042914.mp4","2016-12-28 04:29:19","2016-12-28 04:29:19"
382,"JEBYLIM","msg3","2016-12-28/img_20161228042948.png","files/videos/2016-12-28/vid_20161228042948.mp4","2016-12-28 04:29:52","2016-12-28 04:29:52"
383,"Up multimedia production ","msg3","2016-12-28/img_20161228051212.png","files/videos/2016-12-28/vid_20161228051212.mp4","2016-12-28 05:12:16","2016-12-28 05:12:16"
384,"LI HA","msg2","2016-12-28/img_20161228053857.png","files/videos/2016-12-28/vid_20161228053857.mp4","2016-12-28 05:39:02","2016-12-28 05:39:02"
385,"UP MULTIMEDIA PRODUCTIONS","msg1","2016-12-28/img_20161228073609.png","files/videos/2016-12-28/vid_20161228073609.mp4","2016-12-28 07:36:14","2016-12-28 07:36:14"
386,"Hh","msg2","2016-12-28/img_20161228074045.png","files/videos/2016-12-28/vid_20161228074045.mp4","2016-12-28 07:40:51","2016-12-28 07:40:51"
387,"CHan","msg1","2016-12-28/img_20161228074202.png","files/videos/2016-12-28/vid_20161228074202.mp4","2016-12-28 07:42:07","2016-12-28 07:42:07"
388,"Wendy","msg1","2016-12-28/img_20161228080326.png","files/videos/2016-12-28/vid_20161228080326.mp4","2016-12-28 08:03:31","2016-12-28 08:03:31"
389,"Asnirda Anuar","msg3","2016-12-28/img_20161228085711.png","files/videos/2016-12-28/vid_20161228085711.mp4","2016-12-28 08:57:15","2016-12-28 08:57:15"
390,"Asnirda Anuar","msg3","2016-12-28/img_20161228085841.png","files/videos/2016-12-28/vid_20161228085841.mp4","2016-12-28 08:58:46","2016-12-28 08:58:46"
391,"Asnirda Anuar","msg3","2016-12-28/img_20161228090413.png","files/videos/2016-12-28/vid_20161228090413.mp4","2016-12-28 09:04:17","2016-12-28 09:04:17"
392,"sophia","msg3","2016-12-28/img_20161228115916.png","files/videos/2016-12-28/vid_20161228115916.mp4","2016-12-28 11:59:21","2016-12-28 11:59:21"
393,"teoh m.hong","msg2","2016-12-28/img_20161228151159.png","files/videos/2016-12-28/vid_20161228151159.mp4","2016-12-28 15:12:05","2016-12-28 15:12:05"
394,"Ho Yan ","msg2","2016-12-28/img_20161228172621.png","files/videos/2016-12-28/vid_20161228172622.mp4","2016-12-28 17:26:26","2016-12-28 17:26:26"
395,"Edwin Goh","msg3","2016-12-29/img_20161229005215.png","files/videos/2016-12-29/vid_20161229005216.mp4","2016-12-29 00:52:20","2016-12-29 00:52:20"
396,"Ngu hing","msg1","2016-12-29/img_20161229022628.png","files/videos/2016-12-29/vid_20161229022628.mp4","2016-12-29 02:26:34","2016-12-29 02:26:34"
397,"Elaine","msg1","2016-12-29/img_20161229033423.png","files/videos/2016-12-29/vid_20161229033423.mp4","2016-12-29 03:34:28","2016-12-29 03:34:28"
398,"Mary Tan","msg3","2016-12-29/img_20161229035830.png","files/videos/2016-12-29/vid_20161229035830.mp4","2016-12-29 03:58:34","2016-12-29 03:58:34"
399,"Ky","msg2","2016-12-29/img_20161229073721.png","files/videos/2016-12-29/vid_20161229073721.mp4","2016-12-29 07:37:27","2016-12-29 07:37:27"
400,"Cecelia","msg1","2016-12-29/img_20161229100137.png","files/videos/2016-12-29/vid_20161229100137.mp4","2016-12-29 10:01:42","2016-12-29 10:01:42"
401,"JACKY LOH","msg1","2016-12-29/img_20161229113432.png","files/videos/2016-12-29/vid_20161229113432.mp4","2016-12-29 11:34:37","2016-12-29 11:34:37"
402,"Cathleen Ching shwu lin","msg1","2016-12-29/img_20161229114253.png","files/videos/2016-12-29/vid_20161229114253.mp4","2016-12-29 11:42:58","2016-12-29 11:42:58"
403,"Cecelia","msg2","2016-12-29/img_20161229114353.png","files/videos/2016-12-29/vid_20161229114353.mp4","2016-12-29 11:43:58","2016-12-29 11:43:58"
404,"Mis odie","msg1","2016-12-29/img_20161229120314.png","files/videos/2016-12-29/vid_20161229120314.mp4","2016-12-29 12:03:18","2016-12-29 12:03:18"
405,"Samantha","msg3","2016-12-29/img_20161229121703.png","files/videos/2016-12-29/vid_20161229121703.mp4","2016-12-29 12:17:07","2016-12-29 12:17:07"
406,"汪玉婷","msg2","2016-12-29/img_20161229134306.png","files/videos/2016-12-29/vid_20161229134306.mp4","2016-12-29 13:43:11","2016-12-29 13:43:11"
407,"Yu ting","msg2","2016-12-29/img_20161229134417.png","files/videos/2016-12-29/vid_20161229134417.mp4","2016-12-29 13:44:21","2016-12-29 13:44:21"
408,"CM TAN","msg2","2016-12-29/img_20161229135525.png","files/videos/2016-12-29/vid_20161229135525.mp4","2016-12-29 13:55:30","2016-12-29 13:55:30"
409,"Ren nurfatihah ","msg3","2016-12-29/img_20161229144338.png","files/videos/2016-12-29/vid_20161229144338.mp4","2016-12-29 14:43:44","2016-12-29 14:43:44"
410,"Melvin","msg2","2016-12-29/img_20161229153457.png","files/videos/2016-12-29/vid_20161229153457.mp4","2016-12-29 15:35:03","2016-12-29 15:35:03"
411,"Sueann ","msg3","2016-12-29/img_20161229153553.png","files/videos/2016-12-29/vid_20161229153553.mp4","2016-12-29 15:36:00","2016-12-29 15:36:00"
412,"Jobina","msg2","2016-12-29/img_20161229154536.png","files/videos/2016-12-29/vid_20161229154536.mp4","2016-12-29 15:45:41","2016-12-29 15:45:41"
413,"Jeanee","msg3","2016-12-29/img_20161229154843.png","files/videos/2016-12-29/vid_20161229154843.mp4","2016-12-29 15:48:49","2016-12-29 15:48:49"
414,"Pam","msg3","2016-12-29/img_20161229160119.png","files/videos/2016-12-29/vid_20161229160119.mp4","2016-12-29 16:01:25","2016-12-29 16:01:25"
415,"Sashirekha","msg1","2016-12-29/img_20161229160529.png","files/videos/2016-12-29/vid_20161229160529.mp4","2016-12-29 16:05:35","2016-12-29 16:05:35"
416,"Albert","msg2","2016-12-29/img_20161229160815.png","files/videos/2016-12-29/vid_20161229160815.mp4","2016-12-29 16:08:21","2016-12-29 16:08:21"
417,"Amalina","msg3","2016-12-29/img_20161229161624.png","files/videos/2016-12-29/vid_20161229161625.mp4","2016-12-29 16:16:30","2016-12-29 16:16:30"
418,"Gayathri ariyamuthu","msg2","2016-12-29/img_20161229163234.png","files/videos/2016-12-29/vid_20161229163234.mp4","2016-12-29 16:32:39","2016-12-29 16:32:39"
419,"Mano","msg2","2016-12-29/img_20161229185902.png","files/videos/2016-12-29/vid_20161229185902.mp4","2016-12-29 18:59:07","2016-12-29 18:59:07"
420,"Alishba ","msg3","2016-12-29/img_20161229193028.png","files/videos/2016-12-29/vid_20161229193028.mp4","2016-12-29 19:30:34","2016-12-29 19:30:34"
421,"Alishba ","msg2","2016-12-29/img_20161229194410.png","files/videos/2016-12-29/vid_20161229194411.mp4","2016-12-29 19:44:16","2016-12-29 19:44:16"
422,"Alishba","msg2","2016-12-29/img_20161229194812.png","files/videos/2016-12-29/vid_20161229194812.mp4","2016-12-29 19:48:18","2016-12-29 19:48:18"
423,"Kenix lee ","msg3","2016-12-29/img_20161229220737.png","files/videos/2016-12-29/vid_20161229220737.mp4","2016-12-29 22:07:42","2016-12-29 22:07:42"
424,"Dania R Santharen","msg3","2016-12-30/img_20161230003809.png","files/videos/2016-12-30/vid_20161230003809.mp4","2016-12-30 00:38:13","2016-12-30 00:38:13"
425,"Jayanthi krishnan","msg3","2016-12-30/img_20161230011123.png","files/videos/2016-12-30/vid_20161230011123.mp4","2016-12-30 01:11:28","2016-12-30 01:11:28"
426,"Jayanthi krishnan","msg1","2016-12-30/img_20161230011343.png","files/videos/2016-12-30/vid_20161230011343.mp4","2016-12-30 01:13:48","2016-12-30 01:13:48"
427,"Lau Shan Shang ","msg2","2016-12-30/img_20161230020101.png","files/videos/2016-12-30/vid_20161230020101.mp4","2016-12-30 02:01:06","2016-12-30 02:01:06"
428,"Ai wei,  a mum to 2 handsome boys ","msg1","2016-12-30/img_20161230020945.png","files/videos/2016-12-30/vid_20161230020945.mp4","2016-12-30 02:09:50","2016-12-30 02:09:50"
429,"peifen","msg2","2016-12-30/img_20161230024618.png","files/videos/2016-12-30/vid_20161230024618.mp4","2016-12-30 02:46:24","2016-12-30 02:46:24"
430,"Merida ck eng","msg2","2016-12-30/img_20161230055131.png","files/videos/2016-12-30/vid_20161230055131.mp4","2016-12-30 05:51:36","2016-12-30 05:51:36"
431,"Iffah izzana","msg2","2016-12-30/img_20161230063225.png","files/videos/2016-12-30/vid_20161230063225.mp4","2016-12-30 06:32:30","2016-12-30 06:32:30"
432,"Gary","msg1","2016-12-30/img_20161230073608.png","files/videos/2016-12-30/vid_20161230073608.mp4","2016-12-30 07:36:13","2016-12-30 07:36:13"
433,"Prasanna,Raj,Raaghav& Yaadhav","msg3","2016-12-30/img_20161230083855.png","files/videos/2016-12-30/vid_20161230083855.mp4","2016-12-30 08:39:01","2016-12-30 08:39:01"
434,"Kevin Ng Teck Kuan","msg3","2016-12-30/img_20161230102541.png","files/videos/2016-12-30/vid_20161230102541.mp4","2016-12-30 10:25:46","2016-12-30 10:25:46"
435,"Kevin Ng Teck Kuan","msg2","2016-12-30/img_20161230102745.png","files/videos/2016-12-30/vid_20161230102745.mp4","2016-12-30 10:27:50","2016-12-30 10:27:50"
436,"Kevin Ng Teck Kuan","msg1","2016-12-30/img_20161230102907.png","files/videos/2016-12-30/vid_20161230102907.mp4","2016-12-30 10:29:11","2016-12-30 10:29:11"
437,"TAN CHEW YOKE","msg2","2016-12-30/img_20161230104341.png","files/videos/2016-12-30/vid_20161230104341.mp4","2016-12-30 10:43:46","2016-12-30 10:43:46"
438,"Jass","msg3","2016-12-30/img_20161230143108.png","files/videos/2016-12-30/vid_20161230143108.mp4","2016-12-30 14:31:13","2016-12-30 14:31:13"
439,"Dominic Poh ","msg3","2016-12-30/img_20161230155503.png","files/videos/2016-12-30/vid_20161230155503.mp4","2016-12-30 15:55:09","2016-12-30 15:55:09"
440,"ACIK ACHIK","msg3","2016-12-30/img_20161230233706.png","files/videos/2016-12-30/vid_20161230233706.mp4","2016-12-30 23:37:10","2016-12-30 23:37:10"
441,"Michelle & family","msg2","2016-12-30/img_20161230234716.png","files/videos/2016-12-30/vid_20161230234716.mp4","2016-12-30 23:47:21","2016-12-30 23:47:21"
442,"Glynn","msg1","2016-12-31/img_20161231011351.png","files/videos/2016-12-31/vid_20161231011351.mp4","2016-12-31 01:13:56","2016-12-31 01:13:56"
443,"Roideeah jaafar","msg1","2016-12-31/img_20161231030739.png","files/videos/2016-12-31/vid_20161231030739.mp4","2016-12-31 03:07:45","2016-12-31 03:07:45"
444,"Roideeah jaafar","msg3","2016-12-31/img_20161231030948.png","files/videos/2016-12-31/vid_20161231030948.mp4","2016-12-31 03:09:55","2016-12-31 03:09:55"
445,"Roideeah jaafar","msg2","2016-12-31/img_20161231033947.png","files/videos/2016-12-31/vid_20161231033947.mp4","2016-12-31 03:39:52","2016-12-31 03:39:52"
446,"Roideeah jaafar","msg1","2016-12-31/img_20161231034122.png","files/videos/2016-12-31/vid_20161231034122.mp4","2016-12-31 03:41:27","2016-12-31 03:41:27"
447,"Roideeah jaafar","msg3","2016-12-31/img_20161231034209.png","files/videos/2016-12-31/vid_20161231034210.mp4","2016-12-31 03:42:17","2016-12-31 03:42:17"
448,"Tutu Ah","msg2","2016-12-31/img_20161231040354.png","files/videos/2016-12-31/vid_20161231040354.mp4","2016-12-31 04:04:01","2016-12-31 04:04:01"
449,"思偉","msg3","2016-12-31/img_20161231041108.png","files/videos/2016-12-31/vid_20161231041108.mp4","2016-12-31 04:11:14","2016-12-31 04:11:14"
450,"See wooi & family","msg3","2016-12-31/img_20161231041305.png","files/videos/2016-12-31/vid_20161231041305.mp4","2016-12-31 04:13:10","2016-12-31 04:13:10"
451,"Tracy","msg2","2016-12-31/img_20161231041719.png","files/videos/2016-12-31/vid_20161231041719.mp4","2016-12-31 04:17:28","2016-12-31 04:17:28"
452,"test","msg1","2016-12-31/img_20161231043648.png","files/videos/2016-12-31/vid_20161231043648.mp4","2016-12-31 04:36:54","2016-12-31 04:36:54"
453,"test","msg1","2016-12-31/img_20161231043837.png","files/videos/2016-12-31/vid_20161231043837.mp4","2016-12-31 04:38:43","2016-12-31 04:38:43"
454,"fariz","msg1","2016-12-31/img_20161231045610.png","files/videos/2016-12-31/vid_20161231045610.mp4","2016-12-31 04:56:16","2016-12-31 04:56:16"
455,"hl","msg3","2016-12-31/img_20161231051502.png","files/videos/2016-12-31/vid_20161231051503.mp4","2016-12-31 05:15:09","2016-12-31 05:15:09"
456,"Athena au","msg2","2016-12-31/img_20161231072926.png","files/videos/2016-12-31/vid_20161231072926.mp4","2016-12-31 07:29:32","2016-12-31 07:29:32"
457,"miChAEL Wong Wy & family","msg2","2016-12-31/img_20161231091923.png","files/videos/2016-12-31/vid_20161231091923.mp4","2016-12-31 09:19:29","2016-12-31 09:19:29"
458,"MiChAeL WOnG WY & FamILY","msg2","2016-12-31/img_20161231092112.png","files/videos/2016-12-31/vid_20161231092112.mp4","2016-12-31 09:21:18","2016-12-31 09:21:18"
459,"fariz","msg2","2016-12-31/img_20161231123658.png","files/videos/2016-12-31/vid_20161231123658.mp4","2016-12-31 12:37:03","2016-12-31 12:37:03"
460,"fariz","msg1","2016-12-31/img_20161231134923.png","files/videos/2016-12-31/vid_20161231134923.mp4","2016-12-31 13:49:30","2016-12-31 13:49:30"
461,"free ","msg2","2016-12-31/img_20161231135804.png","files/videos/2016-12-31/vid_20161231135804.mp4","2016-12-31 13:58:09","2016-12-31 13:58:09"
462,"Jaa jun","msg1","2016-12-31/img_20161231192121.png","files/videos/2016-12-31/vid_20161231192121.mp4","2016-12-31 19:21:28","2016-12-31 19:21:28"
463,"I","msg1","2017-01-01/img_20170101020249.png","files/videos/2017-01-01/vid_20170101020249.mp4","2017-01-01 02:02:54","2017-01-01 02:02:54"
464,"Nurazlyana Ridwan","msg1","2017-01-01/img_20170101021710.png","files/videos/2017-01-01/vid_20170101021710.mp4","2017-01-01 02:17:16","2017-01-01 02:17:16"
465,"Lf leong","msg1","2017-01-01/img_20170101041412.png","files/videos/2017-01-01/vid_20170101041413.mp4","2017-01-01 04:14:18","2017-01-01 04:14:18"
466,"joel jong & janice pang","msg1","2017-01-01/img_20170101055644.png","files/videos/2017-01-01/vid_20170101055644.mp4","2017-01-01 05:56:51","2017-01-01 05:56:51"
467,"Chan","msg1","2017-01-01/img_20170101070041.png","files/videos/2017-01-01/vid_20170101070041.mp4","2017-01-01 07:00:46","2017-01-01 07:00:46"
468,"fariz test","msg1","2017-01-01/img_20170101072814.png","files/videos/2017-01-01/vid_20170101072814.mp4","2017-01-01 07:28:20","2017-01-01 07:28:20"
469,"test","msg1","2017-01-01/img_20170101074253.png","files/videos/2017-01-01/vid_20170101074253.mp4","2017-01-01 07:43:02","2017-01-01 07:43:02"
470,"bahahah","msg1","2017-01-01/img_20170101074804.png","files/videos/2017-01-01/vid_20170101074804.mp4","2017-01-01 07:48:10","2017-01-01 07:48:10"
471,"test","msg1","2017-01-01/img_20170101080135.png","files/videos/2017-01-01/vid_20170101080135.mp4","2017-01-01 08:01:42","2017-01-01 08:01:42"
472,"hahaaaaa","msg1","2017-01-01/img_20170101080535.png","files/videos/2017-01-01/vid_20170101080535.mp4","2017-01-01 08:05:41","2017-01-01 08:05:41"
473,"tesy farix xjjsjs","msg1","2017-01-01/img_20170101082702.png","files/videos/2017-01-01/vid_20170101082702.mp4","2017-01-01 08:27:07","2017-01-01 08:27:07"
474,"putri test","msg1","2017-01-01/img_20170101083045.png","files/videos/2017-01-01/vid_20170101083045.mp4","2017-01-01 08:30:50","2017-01-01 08:30:50"
475,"Cha","msg1","2017-01-01/img_20170101090153.png","files/videos/2017-01-01/vid_20170101090153.mp4","2017-01-01 09:01:59","2017-01-01 09:01:59"
476,"Sii SC","msg2","2017-01-01/img_20170101104128.png","files/videos/2017-01-01/vid_20170101104128.mp4","2017-01-01 10:41:34","2017-01-01 10:41:34"
477,"Tongxin","msg1","2017-01-01/img_20170101124237.png","files/videos/2017-01-01/vid_20170101124237.mp4","2017-01-01 12:42:43","2017-01-01 12:42:43"
478,"彤昕","msg2","2017-01-01/img_20170101124446.png","files/videos/2017-01-01/vid_20170101124446.mp4","2017-01-01 12:44:51","2017-01-01 12:44:51"
479,"Sarah","msg1","2017-01-01/img_20170101150209.png","files/videos/2017-01-01/vid_20170101150209.mp4","2017-01-01 15:02:16","2017-01-01 15:02:16"
480,"Samantha koh","msg2","2017-01-01/img_20170101153859.png","files/videos/2017-01-01/vid_20170101153859.mp4","2017-01-01 15:39:08","2017-01-01 15:39:08"
